{
  "project_info": {
    "project_number": "82825784207",
    "firebase_url": "https://challenge-days-e841a.firebaseio.com",
    "project_id": "challenge-days-e841a",
    "storage_bucket": "challenge-days-e841a.appspot.com"
  },
  "client": [
    {
      "client_info": {
        "mobilesdk_app_id": "1:82825784207:android:891ea9b5837208aa9539fa",
        "android_client_info": {
          "package_name": "com.hundreddayschallenge"
        }
      },
      "oauth_client": [
        {
          "client_id": "82825784207-11luumg3ob7mf63kfjgd4cdb88qpcpcc.apps.googleusercontent.com",
          "client_type": 3
        }
      ],
      "api_key": [
        {
          "current_key": "AIzaSyAIFYuiwWYeEpMXHHzApxdJZcCRrU07dLI"
        }
      ],
      "services": {
        "appinvite_service": {
          "other_platform_oauth_client": [
            {
              "client_id": "82825784207-11luumg3ob7mf63kfjgd4cdb88qpcpcc.apps.googleusercontent.com",
              "client_type": 3
            }
          ]
        }
      }
    },
    {
      "client_info": {
        "mobilesdk_app_id": "1:82825784207:android:620bf3014e3c62829539fa",
        "android_client_info": {
          "package_name": "com.hundreddayschallenge.dev.debug"
        }
      },
      "oauth_client": [
        {
          "client_id": "82825784207-11luumg3ob7mf63kfjgd4cdb88qpcpcc.apps.googleusercontent.com",
          "client_type": 3
        }
      ],
      "api_key": [
        {
          "current_key": "AIzaSyAIFYuiwWYeEpMXHHzApxdJZcCRrU07dLI"
        }
      ],
      "services": {
        "appinvite_service": {
          "other_platform_oauth_client": [
            {
              "client_id": "82825784207-11luumg3ob7mf63kfjgd4cdb88qpcpcc.apps.googleusercontent.com",
              "client_type": 3
            }
          ]
        }
      }
    }
  ],
  "configuration_version": "1"
}